t The Tube!
d Life forces you down paths.
s 1.0 1.0 1.0
c 1.0 0.0 0.0
# First row of bricks
b -4.0 -3.0 -3.0
b -4.0 -3.0 -5.0
b -4.0 -3.0 -7.0
b -4.0 -3.0 -9.0
b -4.0 -3.0 -11.0
b -4.0 -3.0 -13.0
b -4.0 -3.0 -15.0
#
c 0.7 0.0 0.3
# Second row of bricks
b -2.0 -3.0 -3.0
b -2.0 -3.0 -5.0
b -2.0 -3.0 -7.0
b -2.0 -3.0 -9.0
b -2.0 -3.0 -11.0
b -2.0 -3.0 -13.0
b -2.0 -3.0 -15.0
#
c 0.5 0.0 0.5
# Third row of bricks
b 0.0 -3.0 -3.0
b 0.0 -3.0 -5.0
b 0.0 -3.0 -7.0
b 0.0 -3.0 -9.0
b 0.0 -3.0 -11.0
b 0.0 -3.0 -13.0
b 0.0 -3.0 -15.0
#
c 0.3 0.0 0.7
# Fourth row of bricks
b 2.0 -3.0 -3.0
b 2.0 -3.0 -5.0
b 2.0 -3.0 -7.0
b 2.0 -3.0 -9.0
b 2.0 -3.0 -11.0
b 2.0 -3.0 -13.0
b 2.0 -3.0 -15.0
#
c 0.0 0.0 1.0
# Fifth row of bricks
b 4.0 -3.0 -3.0
b 4.0 -3.0 -5.0
b 4.0 -3.0 -7.0
b 4.0 -3.0 -9.0
b 4.0 -3.0 -11.0
b 4.0 -3.0 -13.0
b 4.0 -3.0 -15.0
#
#
# First column of bricks
c 0.7 0.3 0.0
b -4.0 -1.5 -3.0
b -4.0 -1.5 -5.0
b -4.0 -1.5 -7.0
b -4.0 -1.5 -9.0
b -4.0 -1.5 -11.0
b -4.0 -1.5 -13.0
b -4.0 -1.5 -15.0
#
c 0.5 0.5 0.0
b -4.0 0.0 -3.0
b -4.0 0.0 -5.0
b -4.0 0.0 -7.0
b -4.0 0.0 -9.0
b -4.0 0.0 -11.0
b -4.0 0.0 -13.0
b -4.0 0.0 -15.0
#
c 0.3 0.7 0.0
b -4.0 1.5 -3.0
b -4.0 1.5 -5.0
b -4.0 1.5 -7.0
b -4.0 1.5 -9.0
b -4.0 1.5 -11.0
b -4.0 1.5 -13.0
b -4.0 1.5 -15.0
#
c 0.0 1.0 0.0
b -4.0 3.0 -3.0
b -4.0 3.0 -5.0
b -4.0 3.0 -7.0
b -4.0 3.0 -9.0
b -4.0 3.0 -11.0
b -4.0 3.0 -13.0
b -4.0 3.0 -15.0
#
# Second column of bricks
c 0.3 0.3 1.0
b 4.0 -1.5 -3.0
b 4.0 -1.5 -5.0
b 4.0 -1.5 -7.0
b 4.0 -1.5 -9.0
b 4.0 -1.5 -11.0
b 4.0 -1.5 -13.0
b 4.0 -1.5 -15.0
#
c 0.5 0.5 1.0
b 4.0 0.0 -3.0
b 4.0 0.0 -5.0
b 4.0 0.0 -7.0
b 4.0 0.0 -9.0
b 4.0 0.0 -11.0
b 4.0 0.0 -13.0
b 4.0 0.0 -15.0
#
c 0.7 0.7 1.0
b 4.0 1.5 -3.0
b 4.0 1.5 -5.0
b 4.0 1.5 -7.0
b 4.0 1.5 -9.0
b 4.0 1.5 -11.0
b 4.0 1.5 -13.0
b 4.0 1.5 -15.0
#
c 1.0 1.0 1.0
b -4.0 3.0 -3.0
b -4.0 3.0 -5.0
b -4.0 3.0 -7.0
b -4.0 3.0 -9.0
b -4.0 3.0 -11.0
b -4.0 3.0 -13.0
b -4.0 3.0 -15.0
#
# Second row of bricks
c 0.3 1.0 0.3
b -2.0 3.0 -3.0
b -2.0 3.0 -5.0
b -2.0 3.0 -7.0
b -2.0 3.0 -9.0
b -2.0 3.0 -11.0
b -2.0 3.0 -13.0
b -2.0 3.0 -15.0
#
c 0.5 1.0 0.5
b 0.0 3.0 -3.0
b 0.0 3.0 -5.0
b 0.0 3.0 -7.0
b 0.0 3.0 -9.0
b 0.0 3.0 -11.0
b 0.0 3.0 -13.0
b 0.0 3.0 -15.0
#
c 0.7 1.0 0.7
b 2.0 3.0 -3.0
b 2.0 3.0 -5.0
b 2.0 3.0 -7.0
b 2.0 3.0 -9.0
b 2.0 3.0 -11.0
b 2.0 3.0 -13.0
b 2.0 3.0 -15.0
#
c 1.0 1.0 1.0
b 4.0 3.0 -3.0
b 4.0 3.0 -5.0
b 4.0 3.0 -7.0
b 4.0 3.0 -9.0
b 4.0 3.0 -11.0
b 4.0 3.0 -13.0
b 4.0 3.0 -15.0